Proyecto final/counter_tb.vcd
$date
	Sun Nov 22 21:21:06 2020
$end
$version
	Icarus Verilog
$end
$timescale
	1ps
$end
$scope module TestCounter $end
$var wire 12 ! out [11:0] $end
$var reg 1 " CLK $end
$var reg 1 # En $end
$var reg 1 $ load $end
$var reg 12 % loadData [11:0] $end
$var reg 1 & reset $end
$scope module Co $end
$var wire 1 " clk $end
$var wire 1 # enabled $end
$var wire 1 $ load $end
$var wire 12 ' loadData [11:0] $end
$var wire 1 & reset $end
$var reg 12 ( outValue [11:0] $end
$upscope $end
$upscope $end
$scope module testALU $end
$var wire 1 ) zero $end
$var wire 1 * carry $end
$var wire 4 + S [3:0] $end
$var reg 4 , A [3:0] $end
$var reg 4 - B [3:0] $end
$var reg 3 . command [2:0] $end
$scope module U1 $end
$var wire 4 / A [3:0] $end
$var wire 4 0 B [3:0] $end
$var wire 1 ) Ze $end
$var wire 3 1 command [2:0] $end
$var wire 4 2 S [3:0] $end
$var wire 1 * C $end
$var reg 5 3 Q [4:0] $end
$upscope $end
$upscope $end
$scope module testDecode $end
$var wire 13 4 OUT [12:0] $end
$var reg 7 5 IN [6:0] $end
$scope module U1 $end
$var wire 7 6 in [6:0] $end
$var wire 13 7 outD [12:0] $end
$var reg 13 8 out [12:0] $end
$upscope $end
$upscope $end
$scope module testRAM $end
$var wire 4 9 data [0:3] $end
$var reg 12 : address [0:11] $end
$var reg 1 ; cs $end
$var reg 1 < we $end
$scope module ram $end
$var wire 12 = addres [11:0] $end
$var wire 1 > cs $end
$var wire 1 ; we $end
$var wire 4 ? Data [3:0] $end
$var reg 4 @ dataout [3:0] $end
$upscope $end
$upscope $end
$scope module testRom $end
$var wire 8 A data [7:0] $end
$var reg 12 B addres [11:0] $end
$scope module U1 $end
$var wire 12 C address [11:0] $end
$var wire 8 D data [7:0] $end
$upscope $end
$upscope $end
$scope module testbench $end
$var wire 4 E data_bus [3:0] $end
$var wire 1 F z_flag $end
$var wire 8 G program_byte [7:0] $end
$var wire 1 H phase $end
$var wire 4 I oprnd [3:0] $end
$var wire 4 J instr [3:0] $end
$var wire 1 K c_flag $end
$var wire 12 L address_RAM [11:0] $end
$var wire 4 M accu [3:0] $end
$var wire 12 N PC [11:0] $end
$var wire 4 O FF_out [3:0] $end
$var reg 1 P clock $end
$var reg 4 Q pushbuttons [3:0] $end
$var reg 1 R reset $end
$var integer 32 S immediateDelay [31:0] $end
$var integer 32 T jumpDelay [31:0] $end
$var integer 32 U memoryDelay [31:0] $end
$var integer 32 V nota [31:0] $end
$scope module uPmodule $end
$var wire 1 P clock $end
$var wire 4 W data_bus [3:0] $end
$var wire 4 X pushbuttons [3:0] $end
$var wire 1 R reset $end
$var wire 1 F z_flag $end
$var wire 8 Y program_byte [7:0] $end
$var wire 1 H phase $end
$var wire 4 Z oprnd [3:0] $end
$var wire 4 [ instr [3:0] $end
$var wire 13 \ decode_out [12:0] $end
$var wire 7 ] decode_in [6:0] $end
$var wire 1 K c_flag $end
$var wire 4 ^ alu_out [3:0] $end
$var wire 12 _ address_RAM [11:0] $end
$var wire 4 ` accu [3:0] $end
$var wire 1 a Ze $end
$var wire 12 b PC [11:0] $end
$var wire 4 c FF_out [3:0] $end
$var wire 1 d C $end
$scope module ACCU $end
$var wire 1 e En $end
$var wire 1 P clk $end
$var wire 1 R reset $end
$var wire 4 f Q4 [3:0] $end
$var wire 4 g D4 [3:0] $end
$scope module a $end
$var wire 2 h D2 [1:0] $end
$var wire 1 e En $end
$var wire 1 P clk $end
$var wire 1 R reset $end
$var wire 2 i Q2 [1:0] $end
$scope module a $end
$var wire 1 j D $end
$var wire 1 e En $end
$var wire 1 P clk $end
$var wire 1 R reset $end
$var reg 1 k Q $end
$upscope $end
$scope module b $end
$var wire 1 l D $end
$var wire 1 e En $end
$var wire 1 P clk $end
$var wire 1 R reset $end
$var reg 1 m Q $end
$upscope $end
$upscope $end
$scope module b $end
$var wire 2 n D2 [1:0] $end
$var wire 1 e En $end
$var wire 1 P clk $end
$var wire 1 R reset $end
$var wire 2 o Q2 [1:0] $end
$scope module a $end
$var wire 1 p D $end
$var wire 1 e En $end
$var wire 1 P clk $end
$var wire 1 R reset $end
$var reg 1 q Q $end
$upscope $end
$scope module b $end
$var wire 1 r D $end
$var wire 1 e En $end
$var wire 1 P clk $end
$var wire 1 R reset $end
$var reg 1 s Q $end
$upscope $end
$upscope $end
$upscope $end
$scope module Fetch $end
$var wire 1 t En $end
$var wire 1 P clk $end
$var wire 1 R reset $end
$var wire 4 u Q8b [3:0] $end
$var wire 4 v Q8a [3:0] $end
$var wire 8 w D8 [7:0] $end
$scope module a $end
$var wire 4 x D4 [3:0] $end
$var wire 1 t En $end
$var wire 1 P clk $end
$var wire 1 R reset $end
$var wire 4 y Q4 [3:0] $end
$scope module a $end
$var wire 2 z D2 [1:0] $end
$var wire 1 t En $end
$var wire 1 P clk $end
$var wire 1 R reset $end
$var wire 2 { Q2 [1:0] $end
$scope module a $end
$var wire 1 | D $end
$var wire 1 t En $end
$var wire 1 P clk $end
$var wire 1 R reset $end
$var reg 1 } Q $end
$upscope $end
$scope module b $end
$var wire 1 ~ D $end
$var wire 1 t En $end
$var wire 1 P clk $end
$var wire 1 R reset $end
$var reg 1 !" Q $end
$upscope $end
$upscope $end
$scope module b $end
$var wire 2 "" D2 [1:0] $end
$var wire 1 t En $end
$var wire 1 P clk $end
$var wire 1 R reset $end
$var wire 2 #" Q2 [1:0] $end
$scope module a $end
$var wire 1 $" D $end
$var wire 1 t En $end
$var wire 1 P clk $end
$var wire 1 R reset $end
$var reg 1 %" Q $end
$upscope $end
$scope module b $end
$var wire 1 &" D $end
$var wire 1 t En $end
$var wire 1 P clk $end
$var wire 1 R reset $end
$var reg 1 '" Q $end
$upscope $end
$upscope $end
$upscope $end
$scope module b $end
$var wire 4 (" D4 [3:0] $end
$var wire 1 t En $end
$var wire 1 P clk $end
$var wire 1 R reset $end
$var wire 4 )" Q4 [3:0] $end
$scope module a $end
$var wire 2 *" D2 [1:0] $end
$var wire 1 t En $end
$var wire 1 P clk $end
$var wire 1 R reset $end
$var wire 2 +" Q2 [1:0] $end
$scope module a $end
$var wire 1 ," D $end
$var wire 1 t En $end
$var wire 1 P clk $end
$var wire 1 R reset $end
$var reg 1 -" Q $end
$upscope $end
$scope module b $end
$var wire 1 ." D $end
$var wire 1 t En $end
$var wire 1 P clk $end
$var wire 1 R reset $end
$var reg 1 /" Q $end
$upscope $end
$upscope $end
$scope module b $end
$var wire 2 0" D2 [1:0] $end
$var wire 1 t En $end
$var wire 1 P clk $end
$var wire 1 R reset $end
$var wire 2 1" Q2 [1:0] $end
$scope module a $end
$var wire 1 2" D $end
$var wire 1 t En $end
$var wire 1 P clk $end
$var wire 1 R reset $end
$var reg 1 3" Q $end
$upscope $end
$scope module b $end
$var wire 1 4" D $end
$var wire 1 t En $end
$var wire 1 P clk $end
$var wire 1 R reset $end
$var reg 1 5" Q $end
$upscope $end
$upscope $end
$upscope $end
$upscope $end
$scope module Out $end
$var wire 4 6" D4 [3:0] $end
$var wire 1 7" En $end
$var wire 1 P clk $end
$var wire 1 R reset $end
$var wire 4 8" Q4 [3:0] $end
$scope module a $end
$var wire 2 9" D2 [1:0] $end
$var wire 1 7" En $end
$var wire 1 P clk $end
$var wire 1 R reset $end
$var wire 2 :" Q2 [1:0] $end
$scope module a $end
$var wire 1 ;" D $end
$var wire 1 7" En $end
$var wire 1 P clk $end
$var wire 1 R reset $end
$var reg 1 <" Q $end
$upscope $end
$scope module b $end
$var wire 1 =" D $end
$var wire 1 7" En $end
$var wire 1 P clk $end
$var wire 1 R reset $end
$var reg 1 >" Q $end
$upscope $end
$upscope $end
$scope module b $end
$var wire 2 ?" D2 [1:0] $end
$var wire 1 7" En $end
$var wire 1 P clk $end
$var wire 1 R reset $end
$var wire 2 @" Q2 [1:0] $end
$scope module a $end
$var wire 1 A" D $end
$var wire 1 7" En $end
$var wire 1 P clk $end
$var wire 1 R reset $end
$var reg 1 B" Q $end
$upscope $end
$scope module b $end
$var wire 1 C" D $end
$var wire 1 7" En $end
$var wire 1 P clk $end
$var wire 1 R reset $end
$var reg 1 D" Q $end
$upscope $end
$upscope $end
$upscope $end
$scope module alu $end
$var wire 4 E" A [3:0] $end
$var wire 4 F" B [3:0] $end
$var wire 1 a Ze $end
$var wire 3 G" command [2:0] $end
$var wire 4 H" S [3:0] $end
$var wire 1 d C $end
$var reg 5 I" Q [4:0] $end
$upscope $end
$scope module busAlu $end
$var wire 1 J" En $end
$var wire 4 K" In [3:0] $end
$var wire 4 L" out [3:0] $end
$upscope $end
$scope module busIn $end
$var wire 1 M" En $end
$var wire 4 N" In [3:0] $end
$var wire 4 O" out [3:0] $end
$upscope $end
$scope module busOprnd $end
$var wire 1 P" En $end
$var wire 4 Q" In [3:0] $end
$var wire 4 R" out [3:0] $end
$upscope $end
$scope module cont $end
$var wire 1 P clk $end
$var wire 1 S" enabled $end
$var wire 1 T" load $end
$var wire 12 U" loadData [11:0] $end
$var wire 1 R reset $end
$var reg 12 V" outValue [11:0] $end
$upscope $end
$scope module decoder $end
$var wire 7 W" in [6:0] $end
$var wire 13 X" outD [12:0] $end
$var reg 13 Y" out [12:0] $end
$upscope $end
$scope module fase $end
$var wire 1 P clk $end
$var wire 1 R reset $end
$var wire 1 H Q $end
$scope module FF_T $end
$var wire 1 Z" D $end
$var wire 1 P clk $end
$var wire 1 R reset $end
$var reg 1 H Q $end
$upscope $end
$upscope $end
$scope module flags $end
$var wire 2 [" D2 [1:0] $end
$var wire 1 \" En $end
$var wire 1 P clk $end
$var wire 1 R reset $end
$var wire 2 ]" Q2 [1:0] $end
$scope module a $end
$var wire 1 ^" D $end
$var wire 1 \" En $end
$var wire 1 P clk $end
$var wire 1 R reset $end
$var reg 1 _" Q $end
$upscope $end
$scope module b $end
$var wire 1 `" D $end
$var wire 1 \" En $end
$var wire 1 P clk $end
$var wire 1 R reset $end
$var reg 1 a" Q $end
$upscope $end
$upscope $end
$scope module ram $end
$var wire 4 b" Data [3:0] $end
$var wire 12 c" addres [11:0] $end
$var wire 1 d" cs $end
$var wire 1 e" we $end
$var reg 4 f" dataout [3:0] $end
$upscope $end
$scope module rom $end
$var wire 12 g" address [11:0] $end
$var wire 8 h" data [7:0] $end
$upscope $end
$upscope $end
$upscope $end
$enddefinitions $end
#0
$dumpvars
bx h"
bx g"
bx f"
xe"
xd"
bx c"
bx b"
xa"
x`"
x_"
x^"
bx ]"
x\"
bx ["
xZ"
bx Y"
bx X"
bx W"
bx V"
bx U"
xT"
xS"
bx R"
bx Q"
xP"
bx O"
b110 N"
xM"
bx L"
bx K"
xJ"
bx I"
bx H"
bx G"
bx F"
bx E"
xD"
xC"
xB"
xA"
bx @"
bx ?"
x>"
x="
x<"
x;"
bx :"
bx 9"
bx 8"
x7"
bx 6"
x5"
x4"
x3"
x2"
bx 1"
bx 0"
x/"
x."
x-"
x,"
bx +"
bx *"
bx )"
bx ("
x'"
x&"
x%"
x$"
bx #"
bx ""
x!"
x~
x}
x|
bx {
bx z
bx y
bx x
bx w
bx v
bx u
xt
xs
xr
xq
xp
bx o
bx n
xm
xl
xk
xj
bx i
bx h
bx g
bx f
xe
xd
bx c
bx b
xa
bx `
bx _
bx ^
bx ]
bx \
bx [
bx Z
bx Y
b110 X
bx W
b0 V
b100010100 U
b1010010000 T
b10000 S
0R
b110 Q
0P
bx O
bx N
bx M
bx L
xK
bx J
bx I
xH
bx G
xF
bx E
bx D
bx C
bx B
bx A
bx @
bx ?
x>
b0x =
x<
x;
bx :
bx 9
bx 8
bx 7
bx 6
bx 5
bx 4
bx 3
bx 2
bx 1
bx 0
bx /
bx .
bx -
bx ,
bx +
x*
x)
bx (
bx '
x&
bx %
x$
x#
x"
bx !
$end
#2
0;"
0="
0A"
0C"
b0 9"
b0 ?"
b0 E
b0 W
b0 6"
b0 F"
b0 L"
b0 O"
b0 R"
b0 b"
1J"
0M"
0P"
07"
0e
b0 G"
0e"
0d"
0\"
0T"
1S"
b1000000001000 \
b1000000001000 X"
b1000000001000 Y"
1`"
0p
0r
0j
0l
1a
1,"
1."
12"
14"
0|
1~
0$"
0&"
b0 n
b0 h
0^"
b11 *"
b11 0"
b1 z
b0 ""
b0 ^
b0 g
b0 H"
b0 K"
b1 ["
0d
b1111 ("
b100 x
0K
0F
1Z"
1t
b0 I"
b1001111 G
b1001111 Y
b1001111 w
b1001111 h"
b0 N
b0 b
b0 V"
b0 g"
0}
b0 {
0!"
0%"
b0 J
b0 [
b0 v
b0 y
b0 #"
0'"
0-"
b0 +"
0/"
03"
b1001111 L
b1001111 _
b1001111 U"
b1001111 c"
b0 I
b0 Z
b0 u
b0 )"
b0 Q"
b0 1"
05"
0_"
b0 ]"
0a"
b0 ]
b0 W"
0H
0k
b0 i
0m
0q
b0 M
b0 `
b0 f
b0 E"
b0 o
0s
0<"
b0 :"
0>"
0B"
b0 O
b0 c
b0 8"
b0 @"
0D"
1R
#3
0R
#5
0`"
1p
1r
1j
1l
b0 ["
0a
b11 n
b11 h
1;"
1="
1A"
1C"
b1111 ^
b1111 g
b1111 H"
b1111 K"
b11 9"
b11 ?"
b1111 I"
b1111 E
b1111 W
b1111 6"
b1111 F"
b1111 L"
b1111 O"
b1111 R"
b1111 b"
0J"
1P"
1e
b10 G"
1\"
0S"
b11010000010 \
b11010000010 X"
b11010000010 Y"
1|
1&"
b11 z
b1 ""
0Z"
0t
b1101 x
1H
15"
b11 1"
13"
1/"
b1111 I
b1111 Z
b1111 u
b1111 )"
b1111 Q"
b11 +"
1-"
b100001 ]
b100001 W"
b100 J
b100 [
b100 v
b100 y
b1 {
1!"
b111111011111 L
b111111011111 _
b111111011111 U"
b111111011111 c"
b11011111 G
b11011111 Y
b11011111 w
b11011111 h"
b1 N
b1 b
b1 V"
b1 g"
1P
#10
0P
#15
b1111 E
b1111 W
b1111 6"
b1111 F"
b1111 L"
b1111 O"
b1111 R"
b1111 b"
1J"
0P"
0e
b0 G"
0\"
1S"
b1000000001000 \
b1000000001000 X"
b1000000001000 Y"
1Z"
1t
b100000 ]
b100000 W"
0H
1k
b11 i
1m
1q
b1111 M
b1111 `
b1111 f
b1111 E"
b11 o
1s
1P
#16
b1000110 V
#20
0P
#25
17"
0S"
b1001 \
b1001 X"
b1001 Y"
0,"
0."
02"
0|
b0 *"
b1 0"
b1 z
0Z"
0t
b1 ("
b101 x
1H
b1 #"
1'"
b1101001 ]
b1101001 W"
b1101 J
b1101 [
b1101 v
b1101 y
b11 {
1}
b111101010001 L
b111101010001 _
b111101010001 U"
b111101010001 c"
b1010001 G
b1010001 Y
b1010001 w
b1010001 h"
b10 N
b10 b
b10 V"
b10 g"
1P
#30
0P
#35
07"
1S"
b1000000001000 \
b1000000001000 X"
b1000000001000 Y"
1Z"
1t
b1101000 ]
b1101000 W"
0H
1<"
b11 :"
1>"
1B"
b1111 O
b1111 c
b1111 8"
b11 @"
1D"
1P
#36
b1100111 V
#40
0P
#45
0r
0j
b10 n
b1 h
0;"
0C"
b110 ^
b110 g
b110 H"
b110 K"
b1 9"
b10 ?"
b110 I"
b110 E
b110 W
b110 6"
b110 F"
b110 L"
b110 O"
b110 R"
b110 b"
0J"
1M"
1e
b10 G"
1\"
0S"
b11010000100 \
b11010000100 X"
b11010000100 Y"
04"
0&"
b0 0"
b0 ""
0Z"
0t
b0 ("
b100 x
1H
b1 1"
03"
0/"
b1 I
b1 Z
b1 u
b1 )"
b1 Q"
b0 +"
0-"
b101001 ]
b101001 W"
b101 J
b101 [
b101 v
b101 y
b1 {
0}
b101000000 L
b101000000 _
b101000000 U"
b101000000 c"
b1000000 G
b1000000 Y
b1000000 w
b1000000 h"
b11 N
b11 b
b11 V"
b11 g"
1P
#50
0P
#55
b110 E
b110 W
b110 6"
b110 F"
b110 L"
b110 O"
b110 R"
b110 b"
1J"
0M"
0e
b0 G"
0\"
1S"
b1000000001000 \
b1000000001000 X"
b1000000001000 Y"
1Z"
1t
b101000 ]
b101000 W"
0H
b1 i
0k
b110 M
b110 `
b110 f
b110 E"
b10 o
0s
1P
#56
b10001000 V
#60
0P
#65
1`"
b1 ["
1a
0p
0l
b0 n
b0 h
0="
0A"
b0 ^
b0 g
b0 H"
b0 K"
b0 9"
b0 ?"
b0 I"
b0 E
b0 W
b0 6"
b0 F"
b0 L"
b0 O"
b0 R"
b0 b"
0J"
1P"
1e
b10 G"
1\"
0S"
b11010000010 \
b11010000010 X"
b11010000010 Y"
1,"
1."
12"
14"
b11 *"
b11 0"
0Z"
0t
b1111 ("
1H
b0 I
b0 Z
b0 u
b0 )"
b0 Q"
b0 1"
05"
b100001 ]
b100001 W"
b100 J
b100 [
b100 v
b100 y
b0 #"
0'"
b1001111 L
b1001111 _
b1001111 U"
b1001111 c"
b1001111 G
b1001111 Y
b1001111 w
b1001111 h"
b100 N
b100 b
b100 V"
b100 g"
1P
#70
0P
#75
b0 E
b0 W
b0 6"
b0 F"
b0 L"
b0 O"
b0 R"
b0 b"
1J"
0P"
0e
b0 G"
0\"
1S"
b1000000001000 \
b1000000001000 X"
b1000000001000 Y"
1F
1Z"
1t
b1 ]"
1a"
b100010 ]
b100010 W"
0H
b0 i
0m
b0 M
b0 `
b0 f
b0 E"
b0 o
0q
1P
#80
0P
#85
0`"
1p
1r
1j
1l
b0 ["
0a
b11 n
b11 h
1;"
1="
1A"
1C"
b1111 ^
b1111 g
b1111 H"
b1111 K"
b11 9"
b11 ?"
b1111 I"
b1111 E
b1111 W
b1111 6"
b1111 F"
b1111 L"
b1111 O"
b1111 R"
b1111 b"
0J"
1P"
1e
b10 G"
1\"
0S"
b11010000010 \
b11010000010 X"
b11010000010 Y"
0."
04"
1|
0~
1$"
b10 *"
b10 0"
b10 z
b10 ""
0Z"
0t
b1010 ("
b1010 x
b100011 ]
b100011 W"
1H
15"
b11 1"
13"
1/"
b1111 I
b1111 Z
b1111 u
b1111 )"
b1111 Q"
b11 +"
1-"
b111110101010 L
b111110101010 _
b111110101010 U"
b111110101010 c"
b10101010 G
b10101010 Y
b10101010 w
b10101010 h"
b101 N
b101 b
b101 V"
b101 g"
1P
#90
0P
#95
b1111 E
b1111 W
b1111 6"
b1111 F"
b1111 L"
b1111 O"
b1111 R"
b1111 b"
1J"
0P"
0e
b0 G"
0\"
1S"
b1000000001000 \
b1000000001000 X"
b1000000001000 Y"
0F
1Z"
1t
b0 ]"
0a"
b100000 ]
b100000 W"
0H
1k
b11 i
1m
1q
b1111 M
b1111 `
b1111 f
b1111 E"
b11 o
1s
1P
#100
0P
#105
0p
0l
b10 h
1r
0="
0C"
b1 n
1^"
b10 9"
b10 ?"
b1001 ^
b1001 g
b1001 H"
b1001 K"
b10 ["
1d
b1010 E
b1010 W
b1010 6"
b1010 F"
b1010 L"
b1010 O"
b1010 R"
b1010 b"
b11001 I"
0J"
1P"
1e
b11 G"
1\"
0S"
b11011000010 \
b11011000010 X"
b11011000010 Y"
02"
0|
b0 0"
b0 z
0Z"
0t
b1000 ("
b10 x
1H
b10 1"
05"
b1010 I
b1010 Z
b1010 u
b1010 )"
b1010 Q"
b10 +"
0/"
b10 #"
1%"
0!"
b1010001 ]
b1010001 W"
b1010 J
b1010 [
b1010 v
b1010 y
b10 {
1}
b101000101000 L
b101000101000 _
b101000101000 U"
b101000101000 c"
b101000 G
b101000 Y
b101000 w
b101000 h"
b110 N
b110 b
b110 V"
b110 g"
1P
#110
0P
#115
0A"
1;"
1C"
0^"
b10 9"
b1 ?"
b0 ["
0d
b1001 E
b1001 W
b1001 6"
b1001 F"
b1001 L"
b1001 O"
b1001 R"
b1001 b"
1J"
0P"
0e
b0 G"
0\"
1S"
b1000000001000 \
b1000000001000 X"
b1000000001000 Y"
0p
1j
b1 n
b10 h
b1001 ^
b1001 g
b1001 H"
b1001 K"
1K
1Z"
1t
b1001 I"
b10 ]"
1_"
b1010100 ]
b1010100 W"
0H
b10 i
0m
b1001 M
b1001 `
b1001 f
b1001 E"
b1 o
0q
1P
#116
b10101001 V
#120
0P
#125
1r
0j
0C"
b1 n
b0 h
b0 ?"
b1 ^
b1 g
b1 H"
b1 K"
b1000 E
b1000 W
b1000 6"
b1000 F"
b1000 L"
b1000 O"
b1000 R"
b1000 b"
b1 I"
0J"
1P"
b1 G"
1\"
0S"
b1001000010 \
b1001000010 X"
b1001000010 Y"
12"
1~
0$"
b10 0"
b1 z
b0 ""
0Z"
0t
b1010 ("
b100 x
1H
b1000 I
b1000 Z
b1000 u
b1000 )"
b1000 Q"
b0 1"
03"
b10101 ]
b10101 W"
b10 J
b10 [
b10 v
b10 y
b0 {
0}
b100001001010 L
b100001001010 _
b100001001010 U"
b100001001010 c"
b1001010 G
b1001010 Y
b1001010 w
b1001010 h"
b111 N
b111 b
b111 V"
b111 g"
1P
#130
0P
#135
1j
1;"
1C"
b10 h
b10 9"
b1 ?"
b1001 ^
b1001 g
b1001 H"
b1001 K"
b1001 E
b1001 W
b1001 6"
b1001 F"
b1001 L"
b1001 O"
b1001 R"
b1001 b"
b1001 I"
1J"
0P"
b0 G"
0\"
1S"
b1000000001000 \
b1000000001000 X"
b1000000001000 Y"
0K
1Z"
1t
b0 ]"
0_"
b10000 ]
b10000 W"
0H
1P
#136
b11001010 V
#140
0P
#145
1p
0r
b10 n
1A"
0C"
b1010 ^
b1010 g
b1010 H"
b1010 K"
b10 ?"
b1010 I"
b1010 E
b1010 W
b1010 6"
b1010 F"
b1010 L"
b1010 O"
b1010 R"
b1010 b"
0J"
1P"
1e
b10 G"
1\"
0S"
b11010000010 \
b11010000010 X"
b11010000010 Y"
1."
02"
0~
1$"
b11 *"
b0 0"
b0 z
b10 ""
0Z"
0t
b1100 ("
b10 x
1H
b1010 I
b1010 Z
b1010 u
b1010 )"
b1010 Q"
b10 1"
13"
b0 #"
0%"
b100001 ]
b100001 W"
b100 J
b100 [
b100 v
b100 y
b1 {
1!"
b101000101100 L
b101000101100 _
b101000101100 U"
b101000101100 c"
b101100 G
b101100 Y
b101100 w
b101100 h"
b1000 N
b1000 b
b1000 V"
b1000 g"
1P
#150
0P
#155
b1010 E
b1010 W
b1010 6"
b1010 F"
b1010 L"
b1010 O"
b1010 R"
b1010 b"
1J"
0P"
0e
b0 G"
0\"
1S"
b1000000001000 \
b1000000001000 X"
b1000000001000 Y"
1Z"
1t
b100000 ]
b100000 W"
0H
1q
b1010 M
b1010 `
b1010 f
b1010 E"
b10 o
0s
1P
#160
0P
#165
1l
1^"
1p
1j
1="
0A"
b10 ["
1d
b10 n
b11 h
b11 9"
b0 ?"
b1110 ^
b1110 g
b1110 H"
b1110 K"
b1100 E
b1100 W
b1100 6"
b1100 F"
b1100 L"
b1100 O"
b1100 R"
b1100 b"
b11110 I"
0J"
1P"
b1 G"
1\"
0S"
b1001000010 \
b1001000010 X"
b1001000010 Y"
0,"
0."
14"
1|
b0 *"
b1 0"
b10 z
0Z"
0t
b1 ("
b1010 x
1H
b0 1"
03"
b1100 I
b1100 Z
b1100 u
b1100 )"
b1100 Q"
b11 +"
1/"
b10 #"
1%"
b10001 ]
b10001 W"
b10 J
b10 [
b10 v
b10 y
b0 {
0!"
b110010100001 L
b110010100001 _
b110010100001 U"
b110010100001 c"
b10100001 G
b10100001 Y
b10100001 w
b10100001 h"
b1001 N
b1001 b
b1001 V"
b1001 g"
1P
#170
0P
#175
0="
b10 9"
0l
1A"
b10 h
0^"
b10 ?"
b1010 ^
b1010 g
b1010 H"
b1010 K"
b0 ["
0d
b1010 E
b1010 W
b1010 6"
b1010 F"
b1010 L"
b1010 O"
b1010 R"
b1010 b"
b1010 I"
1J"
0P"
b0 G"
0\"
1S"
b1000000001000 \
b1000000001000 X"
b1000000001000 Y"
1K
1Z"
1t
b10 ]"
1_"
b10100 ]
b10100 W"
0H
1P
#176
b11101011 V
#180
0P
#185
1r
1p
1j
0l
0;"
0A"
1C"
b11 n
b10 h
0^"
b0 9"
b1 ?"
b1011 ^
b1011 g
b1011 H"
b1011 K"
b0 ["
0d
b1 E
b1 W
b1 6"
b1 F"
b1 L"
b1 O"
b1 R"
b1 b"
b1011 I"
0J"
1P"
1e
b11 G"
1\"
0S"
b11011000010 \
b11011000010 X"
b11011000010 Y"
1,"
12"
1~
b10 *"
b11 0"
b11 z
0Z"
0t
b1011 ("
b1110 x
1H
b1 1"
15"
0/"
b1 I
b1 Z
b1 u
b1 )"
b1 Q"
b0 +"
0-"
b1010101 ]
b1010101 W"
b1010 J
b1010 [
b1010 v
b1010 y
b10 {
1}
b111101011 L
b111101011 _
b111101011 U"
b111101011 c"
b11101011 G
b11101011 Y
b11101011 w
b11101011 h"
b1010 N
b1010 b
b1010 V"
b1010 g"
1P
#190
0P
#195
1A"
1;"
0="
1C"
b10 9"
b11 ?"
b1011 E
b1011 W
b1011 6"
b1011 F"
b1011 L"
b1011 O"
b1011 R"
b1011 b"
1J"
0P"
0e
b0 G"
0\"
1S"
b1000000001000 \
b1000000001000 X"
b1000000001000 Y"
1p
1r
0l
b11 n
b10 h
b1011 ^
b1011 g
b1011 H"
b1011 K"
0K
1Z"
1t
b1011 I"
b0 ]"
0_"
b1010000 ]
b1010000 W"
0H
b1011 M
b1011 `
b1011 f
b1011 E"
b11 o
1s
1P
#196
b100001100 V
#200
0P
#205
0p
0r
0j
1l
b0 n
b1 h
b100 ^
b100 g
b100 H"
b100 K"
b100 I"
0J"
1P"
1e
b100 G"
1\"
0S"
b11100000010 \
b11100000010 X"
b11100000010 Y"
0,"
02"
04"
0$"
1&"
b0 *"
b0 0"
b1 ""
0Z"
0t
b0 ("
b1101 x
1H
b11 1"
13"
b1011 I
b1011 Z
b1011 u
b1011 )"
b1011 Q"
b10 +"
1-"
b1110001 ]
b1110001 W"
b1110 J
b1110 [
b1110 v
b1110 y
b11 {
1!"
b101111010000 L
b101111010000 _
b101111010000 U"
b101111010000 c"
b11010000 G
b11010000 Y
b11010000 w
b11010000 h"
b1011 N
b1011 b
b1011 V"
b1011 g"
1P
#210
0P
#215
0;"
0A"
0C"
b0 ?"
1="
b1 9"
b100 E
b100 W
b100 6"
b100 F"
b100 L"
b100 O"
b100 R"
b100 b"
1J"
0P"
0e
b0 G"
0\"
1S"
b1000000001000 \
b1000000001000 X"
b1000000001000 Y"
0p
0r
0j
b0 n
b1 h
b100 ^
b100 g
b100 H"
b100 K"
1Z"
1t
b100 I"
b1110000 ]
b1110000 W"
0H
0k
b1 i
1m
0q
b100 M
b100 `
b100 f
b100 E"
b0 o
0s
1P
#216
b101001110 V
#220
0P
#225
17"
0S"
b1001 \
b1001 X"
b1001 Y"
0|
b1 z
0Z"
0t
b101 x
1H
05"
b0 1"
03"
b0 I
b0 Z
b0 u
b0 )"
b0 Q"
b0 +"
0-"
1'"
b1101001 ]
b1101001 W"
b1101 J
b1101 [
b1101 v
b1101 y
b1 #"
0%"
b1010000 L
b1010000 _
b1010000 U"
b1010000 c"
b1010000 G
b1010000 Y
b1010000 w
b1010000 h"
b1100 N
b1100 b
b1100 V"
b1100 g"
1P
#230
0P
#235
07"
1S"
b1000000001000 \
b1000000001000 X"
b1000000001000 Y"
1Z"
1t
b1101000 ]
b1101000 W"
0H
b1 :"
0<"
0B"
b100 O
b100 c
b100 8"
b0 @"
0D"
1P
#236
b1110 Q
b1110 X
b1110 N"
b101101111 V
#240
0P
#245
1p
1j
b10 n
b11 h
1;"
1A"
b1110 ^
b1110 g
b1110 H"
b1110 K"
b11 9"
b10 ?"
b1110 I"
b1110 E
b1110 W
b1110 6"
b1110 F"
b1110 L"
b1110 O"
b1110 R"
b1110 b"
0J"
1M"
1e
b10 G"
1\"
0S"
b11010000100 \
b11010000100 X"
b11010000100 Y"
1$"
b11 ""
0Z"
0t
b111 x
1H
b101001 ]
b101001 W"
b101 J
b101 [
b101 v
b101 y
b1 {
0}
b1110000 L
b1110000 _
b1110000 U"
b1110000 c"
b1110000 G
b1110000 Y
b1110000 w
b1110000 h"
b1101 N
b1101 b
b1101 V"
b1101 g"
1P
#250
0P
#255
b1110 E
b1110 W
b1110 6"
b1110 F"
b1110 L"
b1110 O"
b1110 R"
b1110 b"
1J"
0M"
0e
b0 G"
0\"
1S"
b1000000001000 \
b1000000001000 X"
b1000000001000 Y"
1Z"
1t
b101000 ]
b101000 W"
0H
b11 i
1k
b1110 M
b1110 `
b1110 f
b1110 E"
b10 o
1q
1P
#256
b110010000 V
#260
0P
#265
1;"
1="
1A"
0C"
b11 9"
b10 ?"
b1110 E
b1110 W
b1110 6"
b1110 F"
b1110 L"
b1110 O"
b1110 R"
b1110 b"
1e"
1d"
b1000000111000 \
b1000000111000 X"
b1000000111000 Y"
0~
0$"
0&"
b0 z
b0 ""
0Z"
0t
b0 x
1H
b111001 ]
b111001 W"
b111 J
b111 [
b111 v
b111 y
b11 #"
1%"
b0 L
b0 _
b0 U"
b0 c"
b0 G
b0 Y
b0 w
b0 h"
b1110 N
b1110 b
b1110 V"
b1110 g"
1P
#270
0P
#275
0e"
0d"
b1000000001000 \
b1000000001000 X"
b1000000001000 Y"
1,"
1."
12"
14"
1~
b11 *"
b11 0"
b1 z
b1111 ("
b100 x
1Z"
1t
b1001111 L
b1001111 _
b1001111 U"
b1001111 c"
b1001111 G
b1001111 Y
b1001111 w
b1001111 h"
b1111 N
b1111 b
b1111 V"
b1111 g"
b111000 ]
b111000 W"
0H
1P
#280
0P
