Codigo/uP_tb.vcd
$date
	Sun Nov 22 15:27:33 2020
$end
$version
	Icarus Verilog
$end
$timescale
	1ps
$end
$scope module testbench $end
$var wire 4 ! data_bus [3:0] $end
$var wire 1 " z_flag $end
$var wire 8 # program_byte [7:0] $end
$var wire 1 $ phase $end
$var wire 4 % oprnd [3:0] $end
$var wire 4 & instr [3:0] $end
$var wire 1 ' c_flag $end
$var wire 12 ( address_RAM [11:0] $end
$var wire 4 ) accu [3:0] $end
$var wire 12 * PC [11:0] $end
$var wire 4 + FF_out [3:0] $end
$var reg 1 , clock $end
$var reg 4 - pushbuttons [3:0] $end
$var reg 1 . reset $end
$var integer 32 / immediateDelay [31:0] $end
$var integer 32 0 jumpDelay [31:0] $end
$var integer 32 1 memoryDelay [31:0] $end
$var integer 32 2 nota [31:0] $end
$scope module uPmodule $end
$var wire 1 , clock $end
$var wire 4 3 data_bus [3:0] $end
$var wire 4 4 pushbuttons [3:0] $end
$var wire 1 . reset $end
$var wire 1 " z_flag $end
$var wire 8 5 program_byte [7:0] $end
$var wire 1 $ phase $end
$var wire 4 6 oprnd [3:0] $end
$var wire 4 7 instr [3:0] $end
$var wire 13 8 decode_out [12:0] $end
$var wire 7 9 decode_in [6:0] $end
$var wire 1 ' c_flag $end
$var wire 4 : alu_out [3:0] $end
$var wire 12 ; address_RAM [11:0] $end
$var wire 4 < accu [3:0] $end
$var wire 1 = Ze $end
$var wire 12 > PC [11:0] $end
$var wire 4 ? FF_out [3:0] $end
$var wire 1 @ C $end
$scope module ACCU $end
$var wire 1 A En $end
$var wire 1 , clk $end
$var wire 1 . reset $end
$var wire 4 B Q4 [3:0] $end
$var wire 4 C D4 [3:0] $end
$scope module a $end
$var wire 2 D D2 [1:0] $end
$var wire 1 A En $end
$var wire 1 , clk $end
$var wire 1 . reset $end
$var wire 2 E Q2 [1:0] $end
$scope module a $end
$var wire 1 F D $end
$var wire 1 A En $end
$var wire 1 , clk $end
$var wire 1 . reset $end
$var reg 1 G Q $end
$upscope $end
$scope module b $end
$var wire 1 H D $end
$var wire 1 A En $end
$var wire 1 , clk $end
$var wire 1 . reset $end
$var reg 1 I Q $end
$upscope $end
$upscope $end
$scope module b $end
$var wire 2 J D2 [1:0] $end
$var wire 1 A En $end
$var wire 1 , clk $end
$var wire 1 . reset $end
$var wire 2 K Q2 [1:0] $end
$scope module a $end
$var wire 1 L D $end
$var wire 1 A En $end
$var wire 1 , clk $end
$var wire 1 . reset $end
$var reg 1 M Q $end
$upscope $end
$scope module b $end
$var wire 1 N D $end
$var wire 1 A En $end
$var wire 1 , clk $end
$var wire 1 . reset $end
$var reg 1 O Q $end
$upscope $end
$upscope $end
$upscope $end
$scope module Fetch $end
$var wire 1 P En $end
$var wire 1 , clk $end
$var wire 1 . reset $end
$var wire 4 Q Q8b [3:0] $end
$var wire 4 R Q8a [3:0] $end
$var wire 8 S D8 [7:0] $end
$scope module a $end
$var wire 4 T D4 [3:0] $end
$var wire 1 P En $end
$var wire 1 , clk $end
$var wire 1 . reset $end
$var wire 4 U Q4 [3:0] $end
$scope module a $end
$var wire 2 V D2 [1:0] $end
$var wire 1 P En $end
$var wire 1 , clk $end
$var wire 1 . reset $end
$var wire 2 W Q2 [1:0] $end
$scope module a $end
$var wire 1 X D $end
$var wire 1 P En $end
$var wire 1 , clk $end
$var wire 1 . reset $end
$var reg 1 Y Q $end
$upscope $end
$scope module b $end
$var wire 1 Z D $end
$var wire 1 P En $end
$var wire 1 , clk $end
$var wire 1 . reset $end
$var reg 1 [ Q $end
$upscope $end
$upscope $end
$scope module b $end
$var wire 2 \ D2 [1:0] $end
$var wire 1 P En $end
$var wire 1 , clk $end
$var wire 1 . reset $end
$var wire 2 ] Q2 [1:0] $end
$scope module a $end
$var wire 1 ^ D $end
$var wire 1 P En $end
$var wire 1 , clk $end
$var wire 1 . reset $end
$var reg 1 _ Q $end
$upscope $end
$scope module b $end
$var wire 1 ` D $end
$var wire 1 P En $end
$var wire 1 , clk $end
$var wire 1 . reset $end
$var reg 1 a Q $end
$upscope $end
$upscope $end
$upscope $end
$scope module b $end
$var wire 4 b D4 [3:0] $end
$var wire 1 P En $end
$var wire 1 , clk $end
$var wire 1 . reset $end
$var wire 4 c Q4 [3:0] $end
$scope module a $end
$var wire 2 d D2 [1:0] $end
$var wire 1 P En $end
$var wire 1 , clk $end
$var wire 1 . reset $end
$var wire 2 e Q2 [1:0] $end
$scope module a $end
$var wire 1 f D $end
$var wire 1 P En $end
$var wire 1 , clk $end
$var wire 1 . reset $end
$var reg 1 g Q $end
$upscope $end
$scope module b $end
$var wire 1 h D $end
$var wire 1 P En $end
$var wire 1 , clk $end
$var wire 1 . reset $end
$var reg 1 i Q $end
$upscope $end
$upscope $end
$scope module b $end
$var wire 2 j D2 [1:0] $end
$var wire 1 P En $end
$var wire 1 , clk $end
$var wire 1 . reset $end
$var wire 2 k Q2 [1:0] $end
$scope module a $end
$var wire 1 l D $end
$var wire 1 P En $end
$var wire 1 , clk $end
$var wire 1 . reset $end
$var reg 1 m Q $end
$upscope $end
$scope module b $end
$var wire 1 n D $end
$var wire 1 P En $end
$var wire 1 , clk $end
$var wire 1 . reset $end
$var reg 1 o Q $end
$upscope $end
$upscope $end
$upscope $end
$upscope $end
$scope module Out $end
$var wire 4 p D4 [3:0] $end
$var wire 1 q En $end
$var wire 1 , clk $end
$var wire 1 . reset $end
$var wire 4 r Q4 [3:0] $end
$scope module a $end
$var wire 2 s D2 [1:0] $end
$var wire 1 q En $end
$var wire 1 , clk $end
$var wire 1 . reset $end
$var wire 2 t Q2 [1:0] $end
$scope module a $end
$var wire 1 u D $end
$var wire 1 q En $end
$var wire 1 , clk $end
$var wire 1 . reset $end
$var reg 1 v Q $end
$upscope $end
$scope module b $end
$var wire 1 w D $end
$var wire 1 q En $end
$var wire 1 , clk $end
$var wire 1 . reset $end
$var reg 1 x Q $end
$upscope $end
$upscope $end
$scope module b $end
$var wire 2 y D2 [1:0] $end
$var wire 1 q En $end
$var wire 1 , clk $end
$var wire 1 . reset $end
$var wire 2 z Q2 [1:0] $end
$scope module a $end
$var wire 1 { D $end
$var wire 1 q En $end
$var wire 1 , clk $end
$var wire 1 . reset $end
$var reg 1 | Q $end
$upscope $end
$scope module b $end
$var wire 1 } D $end
$var wire 1 q En $end
$var wire 1 , clk $end
$var wire 1 . reset $end
$var reg 1 ~ Q $end
$upscope $end
$upscope $end
$upscope $end
$scope module alu $end
$var wire 4 !" A [3:0] $end
$var wire 4 "" B [3:0] $end
$var wire 1 = Ze $end
$var wire 3 #" command [2:0] $end
$var wire 4 $" S [3:0] $end
$var wire 1 @ C $end
$var reg 5 %" Q [4:0] $end
$upscope $end
$scope module busAlu $end
$var wire 1 &" En $end
$var wire 4 '" In [3:0] $end
$var wire 4 (" out [3:0] $end
$upscope $end
$scope module busIn $end
$var wire 1 )" En $end
$var wire 4 *" In [3:0] $end
$var wire 4 +" out [3:0] $end
$upscope $end
$scope module busOprnd $end
$var wire 1 ," En $end
$var wire 4 -" In [3:0] $end
$var wire 4 ." out [3:0] $end
$upscope $end
$scope module cont $end
$var wire 1 , clk $end
$var wire 1 /" enabled $end
$var wire 1 0" load $end
$var wire 12 1" loadData [11:0] $end
$var wire 1 . reset $end
$var reg 12 2" outValue [11:0] $end
$upscope $end
$scope module decoder $end
$var wire 7 3" in [6:0] $end
$var wire 13 4" outD [12:0] $end
$var reg 13 5" out [12:0] $end
$upscope $end
$scope module fase $end
$var wire 1 , clk $end
$var wire 1 . reset $end
$var wire 1 $ Q $end
$scope module FF_T $end
$var wire 1 6" D $end
$var wire 1 , clk $end
$var wire 1 . reset $end
$var reg 1 $ Q $end
$upscope $end
$upscope $end
$scope module flags $end
$var wire 2 7" D2 [1:0] $end
$var wire 1 8" En $end
$var wire 1 , clk $end
$var wire 1 . reset $end
$var wire 2 9" Q2 [1:0] $end
$scope module a $end
$var wire 1 :" D $end
$var wire 1 8" En $end
$var wire 1 , clk $end
$var wire 1 . reset $end
$var reg 1 ;" Q $end
$upscope $end
$scope module b $end
$var wire 1 <" D $end
$var wire 1 8" En $end
$var wire 1 , clk $end
$var wire 1 . reset $end
$var reg 1 =" Q $end
$upscope $end
$upscope $end
$scope module ram $end
$var wire 4 >" Data [3:0] $end
$var wire 12 ?" addres [11:0] $end
$var wire 1 @" cs $end
$var wire 1 A" we $end
$var reg 4 B" dataout [3:0] $end
$upscope $end
$scope module rom $end
$var wire 12 C" address [11:0] $end
$var wire 8 D" data [7:0] $end
$upscope $end
$upscope $end
$upscope $end
$enddefinitions $end
#0
$dumpvars
bx D"
bx C"
bx B"
xA"
x@"
bx ?"
bx >"
x="
x<"
x;"
x:"
bx 9"
x8"
bx 7"
x6"
bx 5"
bx 4"
bx 3"
bx 2"
bx 1"
x0"
x/"
bx ."
bx -"
x,"
bx +"
b110 *"
x)"
bx ("
bx '"
x&"
bx %"
bx $"
bx #"
bx ""
bx !"
x~
x}
x|
x{
bx z
bx y
xx
xw
xv
xu
bx t
bx s
bx r
xq
bx p
xo
xn
xm
xl
bx k
bx j
xi
xh
xg
xf
bx e
bx d
bx c
bx b
xa
x`
x_
x^
bx ]
bx \
x[
xZ
xY
xX
bx W
bx V
bx U
bx T
bx S
bx R
bx Q
xP
xO
xN
xM
xL
bx K
bx J
xI
xH
xG
xF
bx E
bx D
bx C
bx B
xA
x@
bx ?
bx >
x=
bx <
bx ;
bx :
bx 9
bx 8
bx 7
bx 6
bx 5
b110 4
bx 3
b0 2
b100010100 1
b1010010000 0
b10000 /
0.
b110 -
0,
bx +
bx *
bx )
bx (
x'
bx &
bx %
x$
bx #
x"
bx !
$end
#2
0u
0w
0{
0}
b0 s
b0 y
b0 !
b0 3
b0 p
b0 ""
b0 ("
b0 +"
b0 ."
b0 >"
1&"
0)"
0,"
0q
0A
b0 #"
0A"
0@"
08"
00"
1/"
b1000000001000 8
b1000000001000 4"
b1000000001000 5"
1<"
0L
0N
0F
0H
1=
1f
1h
1l
1n
0X
1Z
0^
0`
b0 J
b0 D
0:"
b11 d
b11 j
b1 V
b0 \
b0 :
b0 C
b0 $"
b0 '"
b1 7"
0@
b1111 b
b100 T
0'
0"
16"
1P
b0 %"
b1001111 #
b1001111 5
b1001111 S
b1001111 D"
b0 *
b0 >
b0 2"
b0 C"
0Y
b0 W
0[
0_
b0 &
b0 7
b0 R
b0 U
b0 ]
0a
0g
b0 e
0i
0m
b1001111 (
b1001111 ;
b1001111 1"
b1001111 ?"
b0 %
b0 6
b0 Q
b0 c
b0 -"
b0 k
0o
0;"
b0 9"
0="
b0 9
b0 3"
0$
0G
b0 E
0I
0M
b0 )
b0 <
b0 B
b0 !"
b0 K
0O
0v
b0 t
0x
0|
b0 +
b0 ?
b0 r
b0 z
0~
1.
#3
0.
#5
0<"
1L
1N
1F
1H
b0 7"
0=
b11 J
b11 D
1u
1w
1{
1}
b1111 :
b1111 C
b1111 $"
b1111 '"
b11 s
b11 y
b1111 %"
b1111 !
b1111 3
b1111 p
b1111 ""
b1111 ("
b1111 +"
b1111 ."
b1111 >"
0&"
1,"
1A
b10 #"
18"
0/"
b11010000010 8
b11010000010 4"
b11010000010 5"
1X
1`
b11 V
b1 \
06"
0P
b1101 T
1$
1o
b11 k
1m
1i
b1111 %
b1111 6
b1111 Q
b1111 c
b1111 -"
b11 e
1g
b100001 9
b100001 3"
b100 &
b100 7
b100 R
b100 U
b1 W
1[
b111111011111 (
b111111011111 ;
b111111011111 1"
b111111011111 ?"
b11011111 #
b11011111 5
b11011111 S
b11011111 D"
b1 *
b1 >
b1 2"
b1 C"
1,
#10
0,
#15
b1111 !
b1111 3
b1111 p
b1111 ""
b1111 ("
b1111 +"
b1111 ."
b1111 >"
1&"
0,"
0A
b0 #"
08"
1/"
b1000000001000 8
b1000000001000 4"
b1000000001000 5"
16"
1P
b100000 9
b100000 3"
0$
1G
b11 E
1I
1M
b1111 )
b1111 <
b1111 B
b1111 !"
b11 K
1O
1,
#16
b1000110 2
#20
0,
#25
1q
0/"
b1001 8
b1001 4"
b1001 5"
0f
0h
0l
0X
b0 d
b1 j
b1 V
06"
0P
b1 b
b101 T
1$
b1 ]
1a
b1101001 9
b1101001 3"
b1101 &
b1101 7
b1101 R
b1101 U
b11 W
1Y
b111101010001 (
b111101010001 ;
b111101010001 1"
b111101010001 ?"
b1010001 #
b1010001 5
b1010001 S
b1010001 D"
b10 *
b10 >
b10 2"
b10 C"
1,
#30
0,
#35
0q
1/"
b1000000001000 8
b1000000001000 4"
b1000000001000 5"
16"
1P
b1101000 9
b1101000 3"
0$
1v
b11 t
1x
1|
b1111 +
b1111 ?
b1111 r
b11 z
1~
1,
#36
b1100111 2
#40
0,
#45
0N
0F
b10 J
b1 D
0u
0}
b110 :
b110 C
b110 $"
b110 '"
b1 s
b10 y
b110 %"
b110 !
b110 3
b110 p
b110 ""
b110 ("
b110 +"
b110 ."
b110 >"
0&"
1)"
1A
b10 #"
18"
0/"
b11010000100 8
b11010000100 4"
b11010000100 5"
0n
0`
b0 j
b0 \
06"
0P
b0 b
b100 T
1$
b1 k
0m
0i
b1 %
b1 6
b1 Q
b1 c
b1 -"
b0 e
0g
b101001 9
b101001 3"
b101 &
b101 7
b101 R
b101 U
b1 W
0Y
b101000000 (
b101000000 ;
b101000000 1"
b101000000 ?"
b1000000 #
b1000000 5
b1000000 S
b1000000 D"
b11 *
b11 >
b11 2"
b11 C"
1,
#50
0,
#55
b110 !
b110 3
b110 p
b110 ""
b110 ("
b110 +"
b110 ."
b110 >"
1&"
0)"
0A
b0 #"
08"
1/"
b1000000001000 8
b1000000001000 4"
b1000000001000 5"
16"
1P
b101000 9
b101000 3"
0$
b1 E
0G
b110 )
b110 <
b110 B
b110 !"
b10 K
0O
1,
#56
b10001000 2
#60
0,
#65
1<"
b1 7"
1=
0L
0H
b0 J
b0 D
0w
0{
b0 :
b0 C
b0 $"
b0 '"
b0 s
b0 y
b0 %"
b0 !
b0 3
b0 p
b0 ""
b0 ("
b0 +"
b0 ."
b0 >"
0&"
1,"
1A
b10 #"
18"
0/"
b11010000010 8
b11010000010 4"
b11010000010 5"
1f
1h
1l
1n
b11 d
b11 j
06"
0P
b1111 b
1$
b0 %
b0 6
b0 Q
b0 c
b0 -"
b0 k
0o
b100001 9
b100001 3"
b100 &
b100 7
b100 R
b100 U
b0 ]
0a
b1001111 (
b1001111 ;
b1001111 1"
b1001111 ?"
b1001111 #
b1001111 5
b1001111 S
b1001111 D"
b100 *
b100 >
b100 2"
b100 C"
1,
#70
0,
#75
b0 !
b0 3
b0 p
b0 ""
b0 ("
b0 +"
b0 ."
b0 >"
1&"
0,"
0A
b0 #"
08"
1/"
b1000000001000 8
b1000000001000 4"
b1000000001000 5"
1"
16"
1P
b1 9"
1="
b100010 9
b100010 3"
0$
b0 E
0I
b0 )
b0 <
b0 B
b0 !"
b0 K
0M
1,
#80
0,
#85
0<"
1L
1N
1F
1H
b0 7"
0=
b11 J
b11 D
1u
1w
1{
1}
b1111 :
b1111 C
b1111 $"
b1111 '"
b11 s
b11 y
b1111 %"
b1111 !
b1111 3
b1111 p
b1111 ""
b1111 ("
b1111 +"
b1111 ."
b1111 >"
0&"
1,"
1A
b10 #"
18"
0/"
b11010000010 8
b11010000010 4"
b11010000010 5"
0h
0n
1X
0Z
1^
b10 d
b10 j
b10 V
b10 \
06"
0P
b1010 b
b1010 T
b100011 9
b100011 3"
1$
1o
b11 k
1m
1i
b1111 %
b1111 6
b1111 Q
b1111 c
b1111 -"
b11 e
1g
b111110101010 (
b111110101010 ;
b111110101010 1"
b111110101010 ?"
b10101010 #
b10101010 5
b10101010 S
b10101010 D"
b101 *
b101 >
b101 2"
b101 C"
1,
#90
0,
#95
b1111 !
b1111 3
b1111 p
b1111 ""
b1111 ("
b1111 +"
b1111 ."
b1111 >"
1&"
0,"
0A
b0 #"
08"
1/"
b1000000001000 8
b1000000001000 4"
b1000000001000 5"
0"
16"
1P
b0 9"
0="
b100000 9
b100000 3"
0$
1G
b11 E
1I
1M
b1111 )
b1111 <
b1111 B
b1111 !"
b11 K
1O
1,
#100
0,
#105
0L
0H
b10 D
1N
0w
0}
b1 J
1:"
b10 s
b10 y
b1001 :
b1001 C
b1001 $"
b1001 '"
b10 7"
1@
b1010 !
b1010 3
b1010 p
b1010 ""
b1010 ("
b1010 +"
b1010 ."
b1010 >"
b11001 %"
0&"
1,"
1A
b11 #"
18"
0/"
b11011000010 8
b11011000010 4"
b11011000010 5"
0l
0X
b0 j
b0 V
06"
0P
b1000 b
b10 T
1$
b10 k
0o
b1010 %
b1010 6
b1010 Q
b1010 c
b1010 -"
b10 e
0i
b10 ]
1_
0[
b1010001 9
b1010001 3"
b1010 &
b1010 7
b1010 R
b1010 U
b10 W
1Y
b101000101000 (
b101000101000 ;
b101000101000 1"
b101000101000 ?"
b101000 #
b101000 5
b101000 S
b101000 D"
b110 *
b110 >
b110 2"
b110 C"
1,
#110
0,
#115
0{
1u
1}
0:"
b10 s
b1 y
b0 7"
0@
b1001 !
b1001 3
b1001 p
b1001 ""
b1001 ("
b1001 +"
b1001 ."
b1001 >"
1&"
0,"
0A
b0 #"
08"
1/"
b1000000001000 8
b1000000001000 4"
b1000000001000 5"
0L
1F
b1 J
b10 D
b1001 :
b1001 C
b1001 $"
b1001 '"
1'
16"
1P
b1001 %"
b10 9"
1;"
b1010100 9
b1010100 3"
0$
b10 E
0I
b1001 )
b1001 <
b1001 B
b1001 !"
b1 K
0M
1,
#116
b10101001 2
#120
0,
#125
1N
0F
0}
b1 J
b0 D
b0 y
b1 :
b1 C
b1 $"
b1 '"
b1000 !
b1000 3
b1000 p
b1000 ""
b1000 ("
b1000 +"
b1000 ."
b1000 >"
b1 %"
0&"
1,"
b1 #"
18"
0/"
b1001000010 8
b1001000010 4"
b1001000010 5"
1l
1Z
0^
b10 j
b1 V
b0 \
06"
0P
b1010 b
b100 T
1$
b1000 %
b1000 6
b1000 Q
b1000 c
b1000 -"
b0 k
0m
b10101 9
b10101 3"
b10 &
b10 7
b10 R
b10 U
b0 W
0Y
b100001001010 (
b100001001010 ;
b100001001010 1"
b100001001010 ?"
b1001010 #
b1001010 5
b1001010 S
b1001010 D"
b111 *
b111 >
b111 2"
b111 C"
1,
#130
0,
#135
1F
1u
1}
b10 D
b10 s
b1 y
b1001 :
b1001 C
b1001 $"
b1001 '"
b1001 !
b1001 3
b1001 p
b1001 ""
b1001 ("
b1001 +"
b1001 ."
b1001 >"
b1001 %"
1&"
0,"
b0 #"
08"
1/"
b1000000001000 8
b1000000001000 4"
b1000000001000 5"
0'
16"
1P
b0 9"
0;"
b10000 9
b10000 3"
0$
1,
#136
b11001010 2
#140
0,
#145
1L
0N
b10 J
1{
0}
b1010 :
b1010 C
b1010 $"
b1010 '"
b10 y
b1010 %"
b1010 !
b1010 3
b1010 p
b1010 ""
b1010 ("
b1010 +"
b1010 ."
b1010 >"
0&"
1,"
1A
b10 #"
18"
0/"
b11010000010 8
b11010000010 4"
b11010000010 5"
1h
0l
0Z
1^
b11 d
b0 j
b0 V
b10 \
06"
0P
b1100 b
b10 T
1$
b1010 %
b1010 6
b1010 Q
b1010 c
b1010 -"
b10 k
1m
b0 ]
0_
b100001 9
b100001 3"
b100 &
b100 7
b100 R
b100 U
b1 W
1[
b101000101100 (
b101000101100 ;
b101000101100 1"
b101000101100 ?"
b101100 #
b101100 5
b101100 S
b101100 D"
b1000 *
b1000 >
b1000 2"
b1000 C"
1,
#150
0,
#155
b1010 !
b1010 3
b1010 p
b1010 ""
b1010 ("
b1010 +"
b1010 ."
b1010 >"
1&"
0,"
0A
b0 #"
08"
1/"
b1000000001000 8
b1000000001000 4"
b1000000001000 5"
16"
1P
b100000 9
b100000 3"
0$
1M
b1010 )
b1010 <
b1010 B
b1010 !"
b10 K
0O
1,
#160
0,
#165
1H
1:"
1L
1F
1w
0{
b10 7"
1@
b10 J
b11 D
b11 s
b0 y
b1110 :
b1110 C
b1110 $"
b1110 '"
b1100 !
b1100 3
b1100 p
b1100 ""
b1100 ("
b1100 +"
b1100 ."
b1100 >"
b11110 %"
0&"
1,"
b1 #"
18"
0/"
b1001000010 8
b1001000010 4"
b1001000010 5"
0f
0h
1n
1X
b0 d
b1 j
b10 V
06"
0P
b1 b
b1010 T
1$
b0 k
0m
b1100 %
b1100 6
b1100 Q
b1100 c
b1100 -"
b11 e
1i
b10 ]
1_
b10001 9
b10001 3"
b10 &
b10 7
b10 R
b10 U
b0 W
0[
b110010100001 (
b110010100001 ;
b110010100001 1"
b110010100001 ?"
b10100001 #
b10100001 5
b10100001 S
b10100001 D"
b1001 *
b1001 >
b1001 2"
b1001 C"
1,
#170
0,
#175
0w
b10 s
0H
1{
b10 D
0:"
b10 y
b1010 :
b1010 C
b1010 $"
b1010 '"
b0 7"
0@
b1010 !
b1010 3
b1010 p
b1010 ""
b1010 ("
b1010 +"
b1010 ."
b1010 >"
b1010 %"
1&"
0,"
b0 #"
08"
1/"
b1000000001000 8
b1000000001000 4"
b1000000001000 5"
1'
16"
1P
b10 9"
1;"
b10100 9
b10100 3"
0$
1,
#176
b11101011 2
#180
0,
#185
1N
1L
1F
0H
0u
0{
1}
b11 J
b10 D
0:"
b0 s
b1 y
b1011 :
b1011 C
b1011 $"
b1011 '"
b0 7"
0@
b1 !
b1 3
b1 p
b1 ""
b1 ("
b1 +"
b1 ."
b1 >"
b1011 %"
0&"
1,"
1A
b11 #"
18"
0/"
b11011000010 8
b11011000010 4"
b11011000010 5"
1f
1l
1Z
b10 d
b11 j
b11 V
06"
0P
b1011 b
b1110 T
1$
b1 k
1o
0i
b1 %
b1 6
b1 Q
b1 c
b1 -"
b0 e
0g
b1010101 9
b1010101 3"
b1010 &
b1010 7
b1010 R
b1010 U
b10 W
1Y
b111101011 (
b111101011 ;
b111101011 1"
b111101011 ?"
b11101011 #
b11101011 5
b11101011 S
b11101011 D"
b1010 *
b1010 >
b1010 2"
b1010 C"
1,
#190
0,
#195
1{
1u
0w
1}
b10 s
b11 y
b1011 !
b1011 3
b1011 p
b1011 ""
b1011 ("
b1011 +"
b1011 ."
b1011 >"
1&"
0,"
0A
b0 #"
08"
1/"
b1000000001000 8
b1000000001000 4"
b1000000001000 5"
1L
1N
0H
b11 J
b10 D
b1011 :
b1011 C
b1011 $"
b1011 '"
0'
16"
1P
b1011 %"
b0 9"
0;"
b1010000 9
b1010000 3"
0$
b1011 )
b1011 <
b1011 B
b1011 !"
b11 K
1O
1,
#196
b100001100 2
#200
0,
#205
0L
0N
0F
1H
b0 J
b1 D
b100 :
b100 C
b100 $"
b100 '"
b100 %"
0&"
1,"
1A
b100 #"
18"
0/"
b11100000010 8
b11100000010 4"
b11100000010 5"
0f
0l
0n
0^
1`
b0 d
b0 j
b1 \
06"
0P
b0 b
b1101 T
1$
b11 k
1m
b1011 %
b1011 6
b1011 Q
b1011 c
b1011 -"
b10 e
1g
b1110001 9
b1110001 3"
b1110 &
b1110 7
b1110 R
b1110 U
b11 W
1[
b101111010000 (
b101111010000 ;
b101111010000 1"
b101111010000 ?"
b11010000 #
b11010000 5
b11010000 S
b11010000 D"
b1011 *
b1011 >
b1011 2"
b1011 C"
1,
#210
0,
#215
0u
0{
0}
b0 y
1w
b1 s
b100 !
b100 3
b100 p
b100 ""
b100 ("
b100 +"
b100 ."
b100 >"
1&"
0,"
0A
b0 #"
08"
1/"
b1000000001000 8
b1000000001000 4"
b1000000001000 5"
0L
0N
0F
b0 J
b1 D
b100 :
b100 C
b100 $"
b100 '"
16"
1P
b100 %"
b1110000 9
b1110000 3"
0$
0G
b1 E
1I
0M
b100 )
b100 <
b100 B
b100 !"
b0 K
0O
1,
#216
b101001110 2
#220
0,
#225
1q
0/"
b1001 8
b1001 4"
b1001 5"
0X
b1 V
06"
0P
b101 T
1$
0o
b0 k
0m
b0 %
b0 6
b0 Q
b0 c
b0 -"
b0 e
0g
1a
b1101001 9
b1101001 3"
b1101 &
b1101 7
b1101 R
b1101 U
b1 ]
0_
b1010000 (
b1010000 ;
b1010000 1"
b1010000 ?"
b1010000 #
b1010000 5
b1010000 S
b1010000 D"
b1100 *
b1100 >
b1100 2"
b1100 C"
1,
#230
0,
#235
0q
1/"
b1000000001000 8
b1000000001000 4"
b1000000001000 5"
16"
1P
b1101000 9
b1101000 3"
0$
b1 t
0v
0|
b100 +
b100 ?
b100 r
b0 z
0~
1,
#236
b1110 -
b1110 4
b1110 *"
b101101111 2
#240
0,
#245
1L
1F
b10 J
b11 D
1u
1{
b1110 :
b1110 C
b1110 $"
b1110 '"
b11 s
b10 y
b1110 %"
b1110 !
b1110 3
b1110 p
b1110 ""
b1110 ("
b1110 +"
b1110 ."
b1110 >"
0&"
1)"
1A
b10 #"
18"
0/"
b11010000100 8
b11010000100 4"
b11010000100 5"
1^
b11 \
06"
0P
b111 T
1$
b101001 9
b101001 3"
b101 &
b101 7
b101 R
b101 U
b1 W
0Y
b1110000 (
b1110000 ;
b1110000 1"
b1110000 ?"
b1110000 #
b1110000 5
b1110000 S
b1110000 D"
b1101 *
b1101 >
b1101 2"
b1101 C"
1,
#250
0,
#255
b1110 !
b1110 3
b1110 p
b1110 ""
b1110 ("
b1110 +"
b1110 ."
b1110 >"
1&"
0)"
0A
b0 #"
08"
1/"
b1000000001000 8
b1000000001000 4"
b1000000001000 5"
16"
1P
b101000 9
b101000 3"
0$
b11 E
1G
b1110 )
b1110 <
b1110 B
b1110 !"
b10 K
1M
1,
#256
b110010000 2
#260
0,
#265
1u
1w
1{
0}
b11 s
b10 y
b1110 !
b1110 3
b1110 p
b1110 ""
b1110 ("
b1110 +"
b1110 ."
b1110 >"
1A"
1@"
b1000000111000 8
b1000000111000 4"
b1000000111000 5"
0Z
0^
0`
b0 V
b0 \
06"
0P
b0 T
1$
b111001 9
b111001 3"
b111 &
b111 7
b111 R
b111 U
b11 ]
1_
b0 (
b0 ;
b0 1"
b0 ?"
b0 #
b0 5
b0 S
b0 D"
b1110 *
b1110 >
b1110 2"
b1110 C"
1,
#270
0,
#275
0A"
0@"
b1000000001000 8
b1000000001000 4"
b1000000001000 5"
1f
1h
1l
1n
1Z
b11 d
b11 j
b1 V
b1111 b
b100 T
16"
1P
b1001111 (
b1001111 ;
b1001111 1"
b1001111 ?"
b1001111 #
b1001111 5
b1001111 S
b1001111 D"
b1111 *
b1111 >
b1111 2"
b1111 C"
b111000 9
b111000 3"
0$
1,
#280
0,
#285
1N
b11 J
1}
b1111 :
b1111 C
b1111 $"
b1111 '"
b11 y
b1111 %"
b1111 !
b1111 3
b1111 p
b1111 ""
b1111 ("
b1111 +"
b1111 ."
b1111 >"
0&"
1,"
1A
b10 #"
18"
0/"
b11010000010 8
b11010000010 4"
b11010000010 5"
0f
0h
0l
1^
1`
b0 d
b1 j
b11 \
06"
0P
b1 b
b111 T
1$
1o
b11 k
1m
1i
b1111 %
b1111 6
b1111 Q
b1111 c
b1111 -"
b11 e
1g
0a
b100001 9
b100001 3"
b100 &
b100 7
b100 R
b100 U
b0 ]
0_
b111101110001 (
b111101110001 ;
b111101110001 1"
b111101110001 ?"
b1110001 #
b1110001 5
b1110001 S
b1110001 D"
b10000 *
b10000 >
b10000 2"
b10000 C"
1,
#290
0,
#295
b1111 !
b1111 3
b1111 p
b1111 ""
b1111 ("
b1111 +"
b1111 ."
b1111 >"
1&"
0,"
0A
b0 #"
08"
1/"
b1000000001000 8
b1000000001000 4"
b1000000001000 5"
16"
1P
b100000 9
b100000 3"
0$
b1111 )
b1111 <
b1111 B
b1111 !"
b11 K
1O
1,
#300
0,
#305
1u
1w
1{
1}
b11 s
b11 y
b1111 !
b1111 3
b1111 p
b1111 ""
b1111 ("
b1111 +"
b1111 ."
b1111 >"
1A"
1@"
b1000000111000 8
b1000000111000 4"
b1000000111000 5"
0Z
0^
b0 V
b1 \
06"
0P
b1 T
1$
b1 k
0m
0i
b1 %
b1 6
b1 Q
b1 c
b1 -"
b0 e
0g
1a
b111001 9
b111001 3"
b111 &
b111 7
b111 R
b111 U
b11 ]
1_
b100010001 (
b100010001 ;
b100010001 1"
b100010001 ?"
b10001 #
b10001 5
b10001 S
b10001 D"
b10001 *
b10001 >
b10001 2"
b10001 C"
1,
#310
0,
#315
0A"
0@"
b1000000001000 8
b1000000001000 4"
b1000000001000 5"
1f
1l
0n
1Z
0`
b10 d
b10 j
b1 V
b0 \
b1010 b
b100 T
16"
1P
b101001010 (
b101001010 ;
b101001010 1"
b101001010 ?"
b1001010 #
b1001010 5
b1001010 S
b1001010 D"
b10010 *
b10010 >
b10010 2"
b10010 C"
b111000 9
b111000 3"
0$
1,
#320
0,
#325
0N
0H
b10 J
b10 D
0w
0}
b1010 :
b1010 C
b1010 $"
b1010 '"
b10 s
b10 y
b1010 %"
b1010 !
b1010 3
b1010 p
b1010 ""
b1010 ("
b1010 +"
b1010 ."
b1010 >"
0&"
1,"
1A
b10 #"
18"
0/"
b11010000010 8
b11010000010 4"
b11010000010 5"
0f
1^
1`
b0 d
b11 \
06"
0P
b10 b
b111 T
1$
0o
b10 k
1m
b1010 %
b1010 6
b1010 Q
b1010 c
b1010 -"
b10 e
1g
0a
b100001 9
b100001 3"
b100 &
b100 7
b100 R
b100 U
b0 ]
0_
b101001110010 (
b101001110010 ;
b101001110010 1"
b101001110010 ?"
b1110010 #
b1110010 5
b1110010 S
b1110010 D"
b10011 *
b10011 >
b10011 2"
b10011 C"
1,
#330
0,
